<?xml version="1.0" encoding="UTF-8"?>
<svg width="40px" height="40px" viewBox="0 0 40 40" version="1.1" xmlns="http://www.w3.org/2000/svg" xmlns:xlink="http://www.w3.org/1999/xlink">
    <!-- Generator: Sketch 49 (51002) - http://www.bohemiancoding.com/sketch -->
    <title>Shape</title>
    <desc>Created with Sketch.</desc>
    <defs></defs>
    <g id="Page-1" stroke="none" stroke-width="1" fill="none" fill-rule="evenodd">
        <g id="Desktop-HD-Copy" transform="translate(-566.000000, -449.000000)" fill="#000000" fill-rule="nonzero">
            <g id="Group-8" transform="translate(566.000000, 217.000000)">
                <g id="Group" transform="translate(310.000000, 136.000000) scale(1, -1) translate(-310.000000, -136.000000) ">
                    <g id="Group-9">
                        <g id="instagram-glyph-1">
                            <path d="M13.3344103,20 C13.3344103,16.3182553 16.3182553,13.3327948 20,13.3327948 C23.6817447,13.3327948 26.6672052,16.3182553 26.6672052,20 C26.6672052,23.6817447 23.6817447,26.6672052 20,26.6672052 C16.3182553,26.6672052 13.3344103,23.6817447 13.3344103,20 M9.73021002,20 C9.73021002,25.6720517 14.3279483,30.26979 20,30.26979 C25.6720517,30.26979 30.26979,25.6720517 30.26979,20 C30.26979,14.3279483 25.6720517,9.73021002 20,9.73021002 C14.3279483,9.73021002 9.73021002,14.3279483 9.73021002,20 M28.276252,9.32310178 C28.276252,10.6478191 29.3505654,11.723748 30.6768982,11.723748 C32.0016155,11.723748 33.0775444,10.6478191 33.0775444,9.32310178 C33.0775444,7.99838449 32.003231,6.92407108 30.6768982,6.92407108 C29.3505654,6.92407108 28.276252,7.99838449 28.276252,9.32310178 M11.9192246,36.279483 C9.96930533,36.19063 8.9095315,35.8659128 8.20516963,35.5912763 C7.27140549,35.2277868 6.60581583,34.7948304 5.90468498,34.095315 C5.20516963,33.3957997 4.77059774,32.73021 4.40872375,31.7964459 C4.13408724,31.092084 3.80936995,30.0323102 3.72051696,28.082391 C3.62358643,25.9741519 3.60420032,25.3408724 3.60420032,20 C3.60420032,14.6591276 3.62520194,14.0274637 3.72051696,11.917609 C3.80936995,9.96768982 4.13570275,8.9095315 4.40872375,8.20355412 C4.77221325,7.26978998 5.20516963,6.60420032 5.90468498,5.90306947 C6.60420032,5.20355412 7.26978998,4.76898223 8.20516963,4.40710824 C8.9095315,4.13247173 9.96930533,3.80775444 11.9192246,3.71890145 C14.0274637,3.62197092 14.6607431,3.60258481 20,3.60258481 C25.3408724,3.60258481 25.9725363,3.62358643 28.082391,3.71890145 C30.0323102,3.80775444 31.0904685,4.13408724 31.7964459,4.40710824 C32.73021,4.76898223 33.3957997,5.20355412 34.0969305,5.90306947 C34.7964459,6.60258481 35.2294023,7.26978998 35.5928918,8.20355412 C35.8675283,8.90791599 36.1922456,9.96768982 36.2810985,11.917609 C36.3780291,14.0274637 36.3974152,14.6591276 36.3974152,20 C36.3974152,25.3392569 36.3780291,25.9725363 36.2810985,28.082391 C36.1922456,30.0323102 35.8659128,31.092084 35.5928918,31.7964459 C35.2294023,32.73021 34.7964459,33.3957997 34.0969305,34.095315 C33.3974152,34.7948304 32.73021,35.2277868 31.7964459,35.5912763 C31.092084,35.8659128 30.0323102,36.19063 28.082391,36.279483 C25.9741519,36.3764136 25.3408724,36.3957997 20,36.3957997 C14.6607431,36.3957997 14.0274637,36.3764136 11.9192246,36.279483 M11.7544426,0.121163166 C9.62520194,0.2180937 8.17124394,0.555735057 6.89983845,1.05008078 C5.58481422,1.56058158 4.47011309,2.24555735 3.35702746,3.35702746 C2.24555735,4.46849758 1.56058158,5.58319871 1.05008078,6.89983845 C0.555735057,8.17124394 0.2180937,9.62520194 0.121163166,11.7544426 C0.0226171244,13.8869144 0,14.5686591 0,20 C0,25.4313409 0.0226171244,26.1130856 0.121163166,28.2455574 C0.2180937,30.3747981 0.555735057,31.8287561 1.05008078,33.1001616 C1.56058158,34.4151858 2.24394184,35.5315024 3.35702746,36.6429725 C4.46849758,37.7544426 5.58319871,38.4378029 6.89983845,38.9499192 C8.17285945,39.4442649 9.62520194,39.7819063 11.7544426,39.8788368 C13.8885299,39.9757674 14.5686591,40 20,40 C25.4329564,40 26.1130856,39.9773829 28.2455574,39.8788368 C30.3747981,39.7819063 31.8287561,39.4442649 33.1001616,38.9499192 C34.4151858,38.4378029 35.5298869,37.7544426 36.6429725,36.6429725 C37.7544426,35.5315024 38.4378029,34.4151858 38.9499192,33.1001616 C39.4442649,31.8287561 39.7835218,30.3747981 39.8788368,28.2455574 C39.9757674,26.1114701 39.9983845,25.4313409 39.9983845,20 C39.9983845,14.5686591 39.9757674,13.8869144 39.8788368,11.7544426 C39.7819063,9.62520194 39.4442649,8.17124394 38.9499192,6.89983845 C38.4378029,5.58481422 37.7544426,4.47011309 36.6429725,3.35702746 C35.5315024,2.24555735 34.4151858,1.56058158 33.1017771,1.05008078 C31.8287561,0.555735057 30.3747981,0.216478191 28.2471729,0.121163166 C26.1147011,0.0242326333 25.4329564,0 20.0016155,0 C14.5686591,0 13.8885299,0.0226171244 11.7544426,0.121163166" id="Shape" transform="translate(19.999192, 20.000000) scale(1, -1) translate(-19.999192, -20.000000) "></path>
                        </g>
                    </g>
                </g>
            </g>
        </g>
    </g>
</svg>
